<?xml version="1.0" encoding="UTF-8" standalone="no"?>
<!DOCTYPE svg PUBLIC "-//W3C//DTD SVG 1.1//EN" "http://www.w3.org/Graphics/SVG/1.1/DTD/svg11.dtd">
<svg width="100%" height="100%" viewBox="0 0 65 64" version="1.1" xmlns="http://www.w3.org/2000/svg" xmlns:xlink="http://www.w3.org/1999/xlink" xml:space="preserve" xmlns:serif="http://www.serif.com/" style="fill-rule:evenodd;clip-rule:evenodd;stroke-linejoin:round;stroke-miterlimit:2;">
    <g transform="matrix(1,0,0,1,-433,0)">
        <g id="favicon" transform="matrix(0.333333,0,0,0.333333,433.044,0)">
            <rect x="0" y="0" width="192" height="192" style="fill:none;"/>
            <g transform="matrix(3,0,0,3,1.16034,6.34602)">
                <g transform="matrix(69,0,0,69,54.6242,52.6948)">
                </g>
                <text x="8.601px" y="52.695px" style="font-family:'Phosphate-Solid', 'Phosphate';font-size:69px;fill:rgb(0,53,255);">J!</text>
            </g>
        </g>
    </g>
</svg>
